ST558 Project 1: Group A
…
Warning: The `x` argument of `as_tibble.matrix()` must have unique column names if
`.name_repair` is omitted as of tibble 2.0.0.
ℹ Using compatibility `.name_repair`.

[1] "API URL: https://api.census.gov/data/2022/acs/acs1/pums?get=AGEP,JWAP,JWDP,PWGTP,SEX&SCHL=24&key=2b989c8e8efa3003c17e6eb0ca728a968e04a441"
[1] "Numeric Variables:"
[1] "AGEP"  "JWAP"  "JWDP"  "PWGTP"
[1] "Categorical Variables:"
[1] "SEX"
[1] "Geography: ALL"

test

# A tibble: 44,079 × 6
    AGEP JWAP                JWDP                PWGTP SEX   SCHL 
   <dbl> <dttm>              <dttm>              <dbl> <fct> <chr>
 1    88 NA                  NA                      6 2     24   
 2    84 NA                  NA                     23 2     24   
 3    57 2024-09-29 05:02:00 2024-09-29 05:02:00    23 1     24   
 4    37 NA                  NA                     80 1     24   
 5    82 NA                  NA                     16 1     24   
 6    77 NA                  NA                    107 1     24   
 7    28 NA                  NA                     10 2     24   
 8    59 NA                  NA                     22 1     24   
 9    36 2024-09-29 10:17:00 2024-09-29 10:04:30   127 2     24   
10    55 NA                  NA                     46 2     24   
# ℹ 44,069 more rows
…
multi_year_data

# A tibble: 123,669 × 6
    AGEP PWGTP JWAP                SEX   SCHL   YEAR
   <dbl> <dbl> <dttm>              <fct> <chr> <dbl>
 1    88     6 NA                  2     24     2022
 2    84    23 NA                  2     24     2022
 3    57    23 2024-09-29 05:02:00 1     24     2022
 4    37    80 NA                  1     24     2022
 5    82    16 NA                  1     24     2022
 6    77   107 NA                  1     24     2022
 7    28    10 NA                  2     24     2022
 8    59    22 NA                  1     24     2022
 9    36   127 2024-09-29 10:17:00 2     24     2022
10    55    46 NA                  2     24     2022
# ℹ 123,659 more rows
